-------------------------------------------------------------------------------
Test set: com.dmalt.elastics.ElasticsApplicationTests
-------------------------------------------------------------------------------
Tests run: 1, Failures: 0, Errors: 0, Skipped: 0, Time elapsed: 12.22 sec - in com.dmalt.elastics.ElasticsApplicationTests
